Week 2 Milestone Report
…
Shiny App - Again, this section will contain no code, only a conceptual blueprint for how I plan on implementing the prediction algorithm into a Shiny App.

1. EDA

The first step I took (after reading in each file separately) was to randomly select 10,000 lines to read from each file, and with a little manipulation I can calculate the words in each line and the average words per line in each text (in the output below, the first data table is based on the blog text, the second table based on the news text and the third based on the twitter text).

## Warning: package 'dplyr' was built under R version 3.4.2

## Warning: package 'tidytext' was built under R version 3.4.2

## Joining, by = "word"
## Joining, by = "word"

## # A tibble: 10,000 x 3
##     line words_in_line avg_words_line
##    <int>         <int>          <dbl>
##  1     1            17        42.0141
##  2     2             2        42.0141
##  3     3            13        42.0141
##  4     4            87        42.0141
##  5     5            15        42.0141
##  6     6            57        42.0141
##  7     7             6        42.0141
##  8     8             2        42.0141
##  9     9            25        42.0141
## 10    10           285        42.0141
## # ... with 9,990 more rows

## # A tibble: 10,000 x 3
##     line words_in_line avg_words_line
##    <int>         <int>          <dbl>
##  1     1            60        34.4842
##  2     2            43        34.4842
##  3     3             4        34.4842
##  4     4            29        34.4842
##  5     5            77        34.4842
##  6     6            34        34.4842
##  7     7            44        34.4842
##  8     8            72        34.4842
##  9     9            43        34.4842
## 10    10            49        34.4842
## # ... with 9,990 more rows

## # A tibble: 10,000 x 3
##     line words_in_line avg_words_line
##    <int>         <int>          <dbl>
##  1     1            19        12.7868
##  2     2             4        12.7868
##  3     3             9        12.7868
##  4     4            14        12.7868
##  5     5            13        12.7868
##  6     6            14        12.7868
##  7     7            23        12.7868
##  8     8            10        12.7868
##  9     9             8        12.7868
## 10    10             4        12.7868
## # ... with 9,990 more rows
…
